{
    "type": "PS3",
    "branch": "master",
    "url": "https://gerrit.wikimedia.org/r/429546",
    "message": "Testing draft changes",
    "user": "RealName 1",
    "task": false,
    "repo": "test/gerrit-ping"
}
