{
    "url": "https://phabricator.wikimedia.org/T180293#9622050",
    "projects": {
        "User-bd808": {
            "shade": "checkered",
            "disabled": false,
            "tagtype": "user",
            "uri": "https://phabricator.wikimedia.org/tag/user-bd808/"
        },
        "Wikibugs": {
            "shade": "blue",
            "disabled": false,
            "tagtype": "briefcase",
            "uri": "https://phabricator.wikimedia.org/tag/wikibugs/"
        }
    },
    "user": "bd808",
    "title": "Hide User-XX projects from wikibugs output",
    "status": {
        "old": "open",
        "new": "progress",
        "anchor": "9622051"
    },
    "assignee": {
        "old": null,
        "new": "bd808"
    }
}
