[
  {
    "uploader": {
      "name": "RealName 1",
      "email": "email.1@example.com",
      "username": "UserName 1"
    },
    "patchSet": {
      "number": 14,
      "revision": "6e9af738a4e1b95c159b1af344150607a2a0c3ae",
      "parents": [
        "eb5e5ec95e19ef20333e85eb4f4424c0f9250ea1"
      ],
      "ref": "refs/changes/59/536659/14",
      "uploader": {
        "name": "RealName 1",
        "email": "email.1@example.com",
        "username": "UserName 1"
      },
      "createdOn": 1570146176,
      "author": {
        "name": "RealName 1",
        "email": "email.1@example.com",
        "username": "UserName 1"
      },
      "kind": "REWORK",
      "sizeInsertions": 4116,
      "sizeDeletions": -623
    },
    "change": {
      "project": "mediawiki/extensions/Jade",
      "branch": "master",
      "topic": "api",
      "id": "Ifb64e70d77b2becfce0a98d6201f9339c7a2b152",
      "number": 536659,
      "subject": "Implement Api modules",
      "owner": {
        "name": "RealName 1",
        "email": "email.1@example.com",
        "username": "UserName 1"
      },
      "url": "https://gerrit.wikimedia.org/r/536659",
      "commitMessage": "Implement Api modules\n\nThis commit includes api modules for the user-action api. Additionally,\nthere are some changes related to an updated schema and renaming of\njudgements.\n\nBug: T199834\nChange-Id: Ifb64e70d77b2becfce0a98d6201f9339c7a2b152\n",
      "createdOn": 1568399469,
      "status": "NEW"
    },
    "project": "mediawiki/extensions/Jade",
    "refName": "refs/heads/master",
    "changeKey": {
      "id": "Ifb64e70d77b2becfce0a98d6201f9339c7a2b152"
    },
    "type": "patchset-created",
    "eventCreatedOn": 1570146179
  },
  {
    "author": {
      "name": "jenkins-bot",
      "username": "jenkins-bot"
    },
    "approvals": [
      {
        "type": "Verified",
        "description": "Verified",
        "value": "-1",
        "oldValue": "0"
      },
      {
        "type": "Code-Review",
        "description": "Code-Review",
        "value": "0"
      }
    ],
    "comment": "Patch Set 14: Verified-1\n\nMain test build failed.\n\n- quibble-vendor-mysql-php72-docker https://integration.wikimedia.org/ci/job/quibble-vendor-mysql-php72-docker/22512/console : FAILURE in 1m 42s\n- mwgate-node10-docker https://integration.wikimedia.org/ci/job/mwgate-node10-docker/37916/console : SUCCESS in 25s\n- mwext-php72-phan-docker https://integration.wikimedia.org/ci/job/mwext-php72-phan-docker/14285/console : FAILURE in 51s\n- mwext-php72-phan-seccheck-docker https://integration.wikimedia.org/ci/job/mwext-php72-phan-seccheck-docker/12757/console : SUCCESS in 1m 08s",
    "patchSet": {
      "number": 14,
      "revision": "6e9af738a4e1b95c159b1af344150607a2a0c3ae",
      "parents": [
        "eb5e5ec95e19ef20333e85eb4f4424c0f9250ea1"
      ],
      "ref": "refs/changes/59/536659/14",
      "uploader": {
        "name": "RealName 1",
        "email": "email.1@example.com",
        "username": "UserName 1"
      },
      "createdOn": 1570146176,
      "author": {
        "name": "RealName 1",
        "email": "email.1@example.com",
        "username": "UserName 1"
      },
      "kind": "REWORK",
      "sizeInsertions": 4116,
      "sizeDeletions": -623
    },
    "change": {
      "project": "mediawiki/extensions/Jade",
      "branch": "master",
      "topic": "api",
      "id": "Ifb64e70d77b2becfce0a98d6201f9339c7a2b152",
      "number": 536659,
      "subject": "Implement Api modules",
      "owner": {
        "name": "RealName 1",
        "email": "email.1@example.com",
        "username": "UserName 1"
      },
      "url": "https://gerrit.wikimedia.org/r/536659",
      "commitMessage": "Implement Api modules\n\nThis commit includes api modules for the user-action api. Additionally,\nthere are some changes related to an updated schema and renaming of\njudgements.\n\nBug: T199834\nChange-Id: Ifb64e70d77b2becfce0a98d6201f9339c7a2b152\n",
      "createdOn": 1568399469,
      "status": "NEW"
    },
    "project": "mediawiki/extensions/Jade",
    "refName": "refs/heads/master",
    "changeKey": {
      "id": "Ifb64e70d77b2becfce0a98d6201f9339c7a2b152"
    },
    "type": "comment-added",
    "eventCreatedOn": 1570146288
  },
  {
    "author": {
      "name": "jenkins-bot",
      "username": "jenkins-bot"
    },
    "approvals": [
      {
        "type": "Verified",
        "description": "Verified",
        "value": "-1"
      },
      {
        "type": "Code-Review",
        "description": "Code-Review",
        "value": "0"
      }
    ],
    "comment": "Patch Set 14:\n\nPHP test coverage decreased\n\n- mwext-phpunit-coverage-patch-docker https://integration.wikimedia.org/ci/job/mwext-phpunit-coverage-patch-docker/17065/console : FAILURE in 11m 05s",
    "patchSet": {
      "number": 14,
      "revision": "6e9af738a4e1b95c159b1af344150607a2a0c3ae",
      "parents": [
        "eb5e5ec95e19ef20333e85eb4f4424c0f9250ea1"
      ],
      "ref": "refs/changes/59/536659/14",
      "uploader": {
        "name": "RealName 1",
        "email": "email.1@example.com",
        "username": "UserName 1"
      },
      "createdOn": 1570146176,
      "author": {
        "name": "RealName 1",
        "email": "email.1@example.com",
        "username": "UserName 1"
      },
      "kind": "REWORK",
      "sizeInsertions": 4116,
      "sizeDeletions": -623
    },
    "change": {
      "project": "mediawiki/extensions/Jade",
      "branch": "master",
      "topic": "api",
      "id": "Ifb64e70d77b2becfce0a98d6201f9339c7a2b152",
      "number": 536659,
      "subject": "Implement Api modules",
      "owner": {
        "name": "RealName 1",
        "email": "email.1@example.com",
        "username": "UserName 1"
      },
      "url": "https://gerrit.wikimedia.org/r/536659",
      "commitMessage": "Implement Api modules\n\nThis commit includes api modules for the user-action api. Additionally,\nthere are some changes related to an updated schema and renaming of\njudgements.\n\nBug: T199834\nChange-Id: Ifb64e70d77b2becfce0a98d6201f9339c7a2b152\n",
      "createdOn": 1568399469,
      "status": "NEW"
    },
    "project": "mediawiki/extensions/Jade",
    "refName": "refs/heads/master",
    "changeKey": {
      "id": "Ifb64e70d77b2becfce0a98d6201f9339c7a2b152"
    },
    "type": "comment-added",
    "eventCreatedOn": 1570146852
  }
]
