[
  {
    "refUpdate": {
      "oldRev": "b3f27df8de61a84d38a725bf0cecdb9d5a543dec",
      "newRev": "c5e035caecb676a4be872159aed29ac3bf463eef",
      "refName": "refs/sequences/changes",
      "project": "All-Projects"
    },
    "type": "ref-updated",
    "eventCreatedOn": 1530373839
  },
  {
    "submitter": {
      "name": "RealName 1",
      "email": "email.1@example.com",
      "username": "UserName 1"
    },
    "refUpdate": {
      "oldRev": "0000000000000000000000000000000000000000",
      "newRev": "52dcf43bcd5d5f245b274371b552bd6fb2e458a2",
      "refName": "refs/changes/01/2001/1",
      "project": "test"
    },
    "type": "ref-updated",
    "eventCreatedOn": 1530373840
  },
  {
    "submitter": {
      "name": "RealName 1",
      "email": "email.1@example.com",
      "username": "UserName 1"
    },
    "refUpdate": {
      "oldRev": "0000000000000000000000000000000000000000",
      "newRev": "a41649b44bb9f07201756f61af70566e483134f4",
      "refName": "refs/changes/01/2001/meta",
      "project": "test"
    },
    "type": "ref-updated",
    "eventCreatedOn": 1530373840
  },
  {
    "uploader": {
      "name": "RealName 1",
      "email": "email.1@example.com",
      "username": "UserName 1"
    },
    "patchSet": {
      "number": 1,
      "revision": "52dcf43bcd5d5f245b274371b552bd6fb2e458a2",
      "parents": [
        "4d0cd83417f370da2cb60462cbaf51dea04bb216"
      ],
      "ref": "refs/changes/01/2001/1",
      "uploader": {
        "name": "RealName 1",
        "email": "email.1@example.com",
        "username": "UserName 1"
      },
      "createdOn": 1530373839,
      "author": {
        "name": "RealName 1",
        "email": "email.1@example.com",
        "username": "UserName 1"
      },
      "kind": "REWORK",
      "sizeInsertions": 0,
      "sizeDeletions": 0
    },
    "change": {
      "project": "test",
      "branch": "master",
      "id": "I5a0210ada1104a378c2ecbc1dc7ec6c683d0eccd",
      "number": 2001,
      "subject": "test",
      "owner": {
        "name": "RealName 1",
        "email": "email.1@example.com",
        "username": "UserName 1"
      },
      "url": "https://gerrit.git.wmflabs.org/r/2001",
      "commitMessage": "test\n\nChange-Id: I5a0210ada1104a378c2ecbc1dc7ec6c683d0eccd\n",
      "createdOn": 1530373839,
      "status": "NEW"
    },
    "project": "test",
    "refName": "refs/heads/master",
    "changeKey": {
      "id": "I5a0210ada1104a378c2ecbc1dc7ec6c683d0eccd"
    },
    "type": "patchset-created",
    "eventCreatedOn": 1530373841
  }
]
