[
  {
    "author": {
      "name": "PipelineBot",
      "email": "email.1@example.com",
      "username": "pipelinebot"
    },
    "comment": "Patch Set 1:\n\npipeline-dashboard: mediawiki-pipeline-publish\npipeline-build-result: SUCCESS (job: mediawiki-pipeline-publish, build: 59)\n\nIMAGE:\n docker-registry.wikimedia.org/wikimedia/mediawiki-core:2019-10-03-012458-dev\n\nTAGS:\n 2019-10-03-012458-dev, dev",
    "patchSet": {
      "number": 1,
      "revision": "52ed3261d97811377f0ee69fa288f5259e7082f3",
      "parents": [
        "82f7acc873ea74350cba7ac6625338df67482adf"
      ],
      "ref": "refs/changes/08/540508/1",
      "uploader": {
        "name": "RealName 1",
        "email": "email.2@example.com",
        "username": "UserName 1"
      },
      "createdOn": 1570061229,
      "author": {
        "name": "RealName 1",
        "email": "email.2@example.com",
        "username": "UserName 1"
      },
      "kind": "REWORK",
      "sizeInsertions": 1,
      "sizeDeletions": -227
    },
    "change": {
      "project": "mediawiki/core",
      "branch": "master",
      "topic": "phpunit-6",
      "id": "Id713c523caacdf829d107f6d7473fe22ed9c75d6",
      "number": 540508,
      "subject": "HHVM removal: Drop HHVM code for maintenance/",
      "owner": {
        "name": "RealName 1",
        "email": "email.2@example.com",
        "username": "UserName 1"
      },
      "url": "https://gerrit.wikimedia.org/r/540508",
      "commitMessage": "HHVM removal: Drop HHVM code for maintenance/\n\nChange-Id: Id713c523caacdf829d107f6d7473fe22ed9c75d6\n",
      "createdOn": 1570061229,
      "status": "MERGED"
    },
    "project": "mediawiki/core",
    "refName": "refs/heads/master",
    "changeKey": {
      "id": "Id713c523caacdf829d107f6d7473fe22ed9c75d6"
    },
    "type": "comment-added",
    "eventCreatedOn": 1570066038
  }
]
