{
  "object_kind": "merge_request",
  "event_type": "merge_request",
  "user": {
    "id": 3,
    "name": "Ahmon Dancy",
    "username": "dancy",
    "avatar_url": "https://gitlab.wikimedia.org/uploads/-/system/user/avatar/3/avatar.png",
    "email": "[REDACTED]"
  },
  "project": {
    "id": 9,
    "name": "Blubber",
    "description": "Blubber is a BuildKit frontend for building application container images from\r\na minimal set of declarative constructs in YAML. Its focus is on\r\ncomposability, determinism, cache efficiency, and secure default behaviors.",
    "web_url": "https://gitlab.wikimedia.org/repos/releng/blubber",
    "avatar_url": "https://gitlab.wikimedia.org/uploads/-/system/project/avatar/9/blubber-logo-400.png",
    "git_ssh_url": "git@gitlab.wikimedia.org:repos/releng/blubber.git",
    "git_http_url": "https://gitlab.wikimedia.org/repos/releng/blubber.git",
    "namespace": "releng",
    "visibility_level": 20,
    "path_with_namespace": "repos/releng/blubber",
    "default_branch": "main",
    "ci_config_path": null,
    "homepage": "https://gitlab.wikimedia.org/repos/releng/blubber",
    "url": "git@gitlab.wikimedia.org:repos/releng/blubber.git",
    "ssh_url": "git@gitlab.wikimedia.org:repos/releng/blubber.git",
    "http_url": "https://gitlab.wikimedia.org/repos/releng/blubber.git"
  },
  "object_attributes": {
    "assignee_id": null,
    "author_id": 3,
    "created_at": "2024-05-14 18:09:12 UTC",
    "description": "  \nbuildkit.Compile() returns the graph in a binary format, not JSON.",
    "draft": false,
    "head_pipeline_id": null,
    "id": 10543,
    "iid": 79,
    "last_edited_at": null,
    "last_edited_by_id": null,
    "merge_commit_sha": null,
    "merge_error": null,
    "merge_params": {
      "force_remove_source_branch": true
    },
    "merge_status": "checking",
    "merge_user_id": null,
    "merge_when_pipeline_succeeds": false,
    "milestone_id": null,
    "source_branch": "main-I4120b7087cd4717e4a25c052b19db520b1904fa7",
    "source_project_id": 9,
    "state_id": 1,
    "target_branch": "main",
    "target_project_id": 9,
    "time_estimate": 0,
    "title": "buildkit.Compile: Fix comment",
    "updated_at": "2024-05-14 18:09:13 UTC",
    "updated_by_id": null,
    "url": "https://gitlab.wikimedia.org/repos/releng/blubber/-/merge_requests/79",
    "source": {
      "id": 9,
      "name": "Blubber",
      "description": "Blubber is a BuildKit frontend for building application container images from\r\na minimal set of declarative constructs in YAML. Its focus is on\r\ncomposability, determinism, cache efficiency, and secure default behaviors.",
      "web_url": "https://gitlab.wikimedia.org/repos/releng/blubber",
      "avatar_url": "https://gitlab.wikimedia.org/uploads/-/system/project/avatar/9/blubber-logo-400.png",
      "git_ssh_url": "git@gitlab.wikimedia.org:repos/releng/blubber.git",
      "git_http_url": "https://gitlab.wikimedia.org/repos/releng/blubber.git",
      "namespace": "releng",
      "visibility_level": 20,
      "path_with_namespace": "repos/releng/blubber",
      "default_branch": "main",
      "ci_config_path": null,
      "homepage": "https://gitlab.wikimedia.org/repos/releng/blubber",
      "url": "git@gitlab.wikimedia.org:repos/releng/blubber.git",
      "ssh_url": "git@gitlab.wikimedia.org:repos/releng/blubber.git",
      "http_url": "https://gitlab.wikimedia.org/repos/releng/blubber.git"
    },
    "target": {
      "id": 9,
      "name": "Blubber",
      "description": "Blubber is a BuildKit frontend for building application container images from\r\na minimal set of declarative constructs in YAML. Its focus is on\r\ncomposability, determinism, cache efficiency, and secure default behaviors.",
      "web_url": "https://gitlab.wikimedia.org/repos/releng/blubber",
      "avatar_url": "https://gitlab.wikimedia.org/uploads/-/system/project/avatar/9/blubber-logo-400.png",
      "git_ssh_url": "git@gitlab.wikimedia.org:repos/releng/blubber.git",
      "git_http_url": "https://gitlab.wikimedia.org/repos/releng/blubber.git",
      "namespace": "releng",
      "visibility_level": 20,
      "path_with_namespace": "repos/releng/blubber",
      "default_branch": "main",
      "ci_config_path": null,
      "homepage": "https://gitlab.wikimedia.org/repos/releng/blubber",
      "url": "git@gitlab.wikimedia.org:repos/releng/blubber.git",
      "ssh_url": "git@gitlab.wikimedia.org:repos/releng/blubber.git",
      "http_url": "https://gitlab.wikimedia.org/repos/releng/blubber.git"
    },
    "last_commit": null,
    "work_in_progress": false,
    "total_time_spent": 0,
    "time_change": 0,
    "human_total_time_spent": null,
    "human_time_change": null,
    "human_time_estimate": null,
    "assignee_ids": [],
    "reviewer_ids": [],
    "labels": [],
    "state": "opened",
    "blocking_discussions_resolved": true,
    "first_contribution": false,
    "detailed_merge_status": "checking",
    "action": "open"
  },
  "labels": [],
  "changes": {
    "updated_at": {
      "previous": "2024-05-14 18:09:12 UTC",
      "current": "2024-05-14 18:09:13 UTC"
    }
  },
  "repository": {
    "name": "Blubber",
    "url": "git@gitlab.wikimedia.org:repos/releng/blubber.git",
    "description": "Blubber is a BuildKit frontend for building application container images from\r\na minimal set of declarative constructs in YAML. Its focus ison\r\ncomposability, determinism, cache efficiency, and secure default behaviors.",
    "homepage": "https://gitlab.wikimedia.org/repos/releng/blubber"
  }
}
