{
    "class": "PhabricatorApplicationTransactionFeedStory",
    "epoch": 1553098801,
    "authorPHID": "PHID-USER-qztkawkvfnwvkspdr46l",
    "chronologicalKey": "6670508559713421930",
    "data": {
      "objectPHID": "PHID-TASK-6jqrwrnxh3ryxflsfeq6",
      "transactionPHIDs": {
        "PHID-XACT-TASK-gscex6xu3xwre37": "PHID-XACT-TASK-gscex6xu3xwre37",
        "PHID-XACT-TASK-uysmcqefmzsd5tz": "PHID-XACT-TASK-uysmcqefmzsd5tz",
        "PHID-XACT-TASK-vu7gdp55hwscdro": "PHID-XACT-TASK-vu7gdp55hwscdro"
      }
    }
  }
