{
    "class": "PhabricatorApplicationTransactionFeedStory",
    "epoch": 1708299186,
    "authorPHID": "PHID-USER-ll6tmaogat2b5q7tnqas",
    "chronologicalKey": "7337089136410611194",
    "data": {
      "objectPHID": "PHID-TASK-2ucskfhwdqftyspd42m5",
      "transactionPHIDs": {
        "PHID-XACT-TASK-zgdj2tkvqlkycmc": "PHID-XACT-TASK-zgdj2tkvqlkycmc"
      }
    }
}
